FDD_Lab1/simulation/qsim/FDD_Lab2.msim.vcd
$comment
	File created using the following command:
		vcd file FDD_Lab2.msim.vcd -direction
$end
$date
	Wed Mar 16 15:17:53 2022
$end
$version
	ModelSim Version 10.1d
$end
$timescale
	1ps
$end
$scope module FDD_Lab2_vlg_vec_tst $end
$var reg 1 ! A $end
$var reg 1 " B $end
$var reg 1 # C $end
$var reg 1 $ D $end
$var wire 1 % T $end
$var wire 1 & V $end
$var wire 1 ' W $end
$var wire 1 ( X $end
$var wire 1 ) Y $end
$var wire 1 * Z $end
$var wire 1 + sampler $end
$scope module i1 $end
$var wire 1 , gnd $end
$var wire 1 - vcc $end
$var wire 1 . unknown $end
$var tri1 1 / devclrn $end
$var tri1 1 0 devpor $end
$var tri1 1 1 devoe $end
$var wire 1 2 T~output_o $end
$var wire 1 3 V~output_o $end
$var wire 1 4 W~output_o $end
$var wire 1 5 X~output_o $end
$var wire 1 6 Y~output_o $end
$var wire 1 7 Z~output_o $end
$var wire 1 8 A~input_o $end
$var wire 1 9 D~input_o $end
$var wire 1 : C~input_o $end
$var wire 1 ; B~input_o $end
$var wire 1 < inst12~0_combout $end
$var wire 1 = inst~combout $end
$var wire 1 > inst20~combout $end
$var wire 1 ? inst18~combout $end
$var wire 1 @ inst17~combout $end
$var wire 1 A inst21~0_combout $end
$upscope $end
$upscope $end
$enddefinitions $end
#0
$dumpvars
0!
0"
0#
0$
0%
0&
0'
0(
1)
1*
x+
0,
1-
x.
1/
10
11
02
03
04
05
16
17
08
09
0:
0;
1<
0=
0>
1?
1@
1A
$end
#10000
1!
18
0+
1=
13
1&
#20000
1"
0!
1;
08
1+
0A
0@
0=
07
06
03
0*
0)
0&
#30000
1!
18
0+
0?
1A
1@
1=
15
17
16
13
1(
1*
1)
1&
#40000
1#
0"
0!
1:
0;
08
1+
0<
1?
0@
12
05
06
1%
0(
0)
#50000
1!
18
0+
1@
0=
16
03
1)
0&
#60000
1"
0!
1;
08
1+
1<
0A
0@
1=
02
07
06
13
0%
0*
0)
1&
#70000
1!
18
0+
0?
0<
1A
1@
0=
15
12
17
16
03
1(
1%
1*
1)
0&
#80000
1$
0#
0"
0!
19
0:
0;
08
1+
1?
1<
0A
0@
05
02
07
06
0(
0%
0*
0)
#90000
1!
18
0+
0?
1A
1@
1>
1=
15
17
16
14
13
1(
1*
1)
1'
1&
#100000
1"
0!
1;
08
1+
1?
0A
0@
0>
0=
05
07
06
04
03
0(
0*
0)
0'
0&
#110000
1!
18
0+
1A
1@
1>
1=
17
16
14
13
1*
1)
1'
1&
#120000
1#
0"
0!
1:
0;
08
1+
0@
06
0)
#130000
1!
18
0+
0?
1@
0>
0=
15
16
04
03
1(
1)
0'
0&
#140000
1"
0!
1;
08
1+
1?
0@
1>
1=
05
06
14
13
0(
0)
1'
1&
#150000
1!
18
0+
1@
0>
0=
16
04
03
1)
0'
0&
#160000
0$
0#
0"
0!
09
0:
0;
08
1+
#170000
1!
18
0+
1=
13
1&
#180000
1"
0!
1;
08
1+
0A
0@
0=
07
06
03
0*
0)
0&
#190000
1!
18
0+
0?
1A
1@
1=
15
17
16
13
1(
1*
1)
1&
